Exploratory Data Analysis (EDA)
…
# View the effective threshold for being undersized each season
goalies |>
  filter(undersized) |>
  group_by(seasonId) |>
  summarize(
    effective_undersize_threshold = max(height)
  )

## # A tibble: 24 × 2
##    seasonId effective_undersize_threshold
##       <int>                         <int>
##  1 20002001                            70
##  2 20012002                            70
##  3 20022003                            70
##  4 20032004                            71
##  5 20052006                            71
##  6 20062007                            71
##  7 20072008                            71
##  8 20082009                            71
##  9 20092010                            71
## 10 20102011                            71
## # ℹ 14 more rows
…
Save percentage (SV%) has 7 missing values. This could indicate a
goalie who faced 0 shots, likely indicating an emergency backup
situation. This also needs further investigation.

# Investigate 5'7" goalie (and other goalies under 5'10" = 70")
goalies |>
  filter(height < 70) |>
  select(seasonId, fullName, height) |>
  arrange(height, fullName, seasonId)

## # A tibble: 27 × 3
##    seasonId fullName        height
##       <int> <chr>            <int>
##  1 20002001 Fred Brathwaite     67
##  2 20012002 Fred Brathwaite     67
##  3 20022003 Fred Brathwaite     67
##  4 20032004 Fred Brathwaite     67
##  5 20112012 Shawn Hunwick       67
##  6 20002001 Arturs Irbe         68
##  7 20012002 Arturs Irbe         68
##  8 20022003 Arturs Irbe         68
##  9 20032004 Arturs Irbe         68
## 10 20002001 Glenn Healy         68
## # ℹ 17 more rows
…
## `summarise()` has grouped output by 'seasonStartYear'. You
## can override using the `.groups` argument.

goalie_heights_per_season

## # A tibble: 24 × 7
##    seasonStartYear seasonEndYear     n min_height mean_height median_height
##              <int>         <int> <int>      <int>       <dbl>         <dbl>
##  1            2000          2001    91         67        72.4            73
##  2            2001          2002    90         67        72.5            73
##  3            2002          2003    94         67        72.7            73
##  4            2003          2004    96         67        73.0            73
##  5            2005          2006    93         70        73.3            73
##  6            2006          2007    84         70        73.2            73
##  7            2007          2008    90         70        73.3            73
##  8            2008          2009    91         70        73.5            73
##  9            2009          2010    84         70        73.5            73
## 10            2010          2011    89         70        73.8            74
## # ℹ 14 more rows
## # ℹ 1 more variable: max_height <int>
…
established_goalie_heights_per_season

## # A tibble: 24 × 7
##    seasonStartYear seasonEndYear     n min_height mean_height median_height
##              <int>         <int> <int>      <int>       <dbl>         <dbl>
##  1            2000          2001    48         67        72.4            73
##  2            2001          2002    45         67        72.7            73
##  3            2002          2003    42         67        72.8            73
##  4            2003          2004    45         70        73.0            73
##  5            2005          2006    52         70        73.1            73
##  6            2006          2007    44         70        73              73
##  7            2007          2008    44         70        73.2            73
##  8            2008          2009    47         70        73.2            73
##  9            2009          2010    47         70        73.6            74
## 10            2010          2011    49         71        73.7            74
## # ℹ 14 more rows
## # ℹ 1 more variable: max_height <int>
…
# Get the top 5 NHL goalie producing countries in each season
goalie_counts_by_country_and_season = goalies |>
  group_by(seasonStartYear, seasonEndYear, birthCountryCode) |>
  summarize(n = n(), .groups = "drop_last") |>
  slice_max(n, n = 5, with_ties = F) |>
  ungroup() |>
  arrange(seasonStartYear, -n)

goalie_counts_by_country_and_season

## # A tibble: 120 × 4
##    seasonStartYear seasonEndYear birthCountryCode     n
##              <int>         <int> <fct>            <int>
##  1            2000          2001 CAN                 55
##  2            2000          2001 USA                 15
##  3            2000          2001 CZE                  5
##  4            2000          2001 FIN                  3
##  5            2000          2001 SWE                  3
##  6            2001          2002 CAN                 52
##  7            2001          2002 USA                 13
##  8            2001          2002 CZE                  6
##  9            2001          2002 FIN                  6
## 10            2001          2002 SWE                  3
## # ℹ 110 more rows
…
goalie_heights_per_season_country

## # A tibble: 96 × 8
##    seasonStartYear seasonEndYear birthCountryCode     n min_height mean_height
##              <int>         <int> <fct>            <int>      <int>       <dbl>
##  1            2000          2001 CAN                 55         67        72.3
##  2            2001          2002 CAN                 52         67        72.4
##  3            2002          2003 CAN                 53         67        72.6
##  4            2003          2004 CAN                 55         67        73.0
##  5            2005          2006 CAN                 49         70        73.1
##  6            2006          2007 CAN                 43         70        73.2
##  7            2007          2008 CAN                 45         70        73.2
##  8            2008          2009 CAN                 45         70        73.6
##  9            2009          2010 CAN                 42         70        73.7
## 10            2010          2011 CAN                 42         70        73.7
## # ℹ 86 more rows
## # ℹ 2 more variables: median_height <dbl>, max_height <int>
…
prospect_heights_per_season_and_nation

## # A tibble: 36 × 7
##    draftYear nation            n min_height mean_height median_height max_height
##        <int> <fct>         <int>      <int>       <dbl>         <dbl>      <int>
##  1      2008 International     4         73        75.8          76           78
##  2      2009 International    14         71        74.6          75           79
##  3      2010 International     9         69        72.6          73           75
##  4      2011 International    12         70        74.2          74.5         77
##  5      2012 International    13         70        73.3          74           76
##  6      2013 International    10         70        73            72.5         77
##  7      2014 International    15         70        73.7          74           77
##  8      2015 International    11         70        74            74           77
##  9      2016 International    15         72        73.6          74           77
## 10      2017 International    14         72        75            75           79
## # ℹ 26 more rows
…
# Calculate the average SV% and GAA across each season
league_stats_by_season = goalies |>
  group_by(seasonStartYear, seasonEndYear) |>
  summarize(
    mean_savePct = sum(saves) / sum(shotsAgainst),
    mean_goalsAgainstAverage = (sum(goalsAgainst) * 60 * 60) / sum(timeOnIce),  # notice secs to mins conversion
    .groups = "drop"
  ) |>
  ungroup() |>
  arrange(seasonStartYear)

league_stats_by_season

## # A tibble: 24 × 4
##    seasonStartYear seasonEndYear mean_savePct mean_goalsAgainstAverage
##              <int>         <int>        <dbl>                    <dbl>
##  1            2000          2001        0.904                     2.62
##  2            2001          2002        0.908                     2.49
##  3            2002          2003        0.909                     2.52
##  4            2003          2004        0.912                     2.43
##  5            2005          2006        0.902                     2.91
##  6            2006          2007        0.906                     2.74
##  7            2007          2008        0.909                     2.60
##  8            2008          2009        0.909                     2.72
##  9            2009          2010        0.911                     2.66
## 10            2010          2011        0.913                     2.61
## # ℹ 14 more rows
…
# Calculate the average SV% and GAA across each season for established goalies
established_league_stats_by_season = established_goalies |>
  group_by(seasonStartYear, seasonEndYear) |>
  summarize(
    mean_savePct = sum(saves) / sum(shotsAgainst),
    mean_goalsAgainstAverage = (sum(goalsAgainst) * 60 * 60) / sum(timeOnIce),  # notice secs to mins conversion
    .groups = "drop"
  ) |>
  ungroup() |>
  arrange(seasonStartYear)

established_league_stats_by_season

## # A tibble: 24 × 4
##    seasonStartYear seasonEndYear mean_savePct mean_goalsAgainstAverage
##              <int>         <int>        <dbl>                    <dbl>
##  1            2000          2001        0.906                     2.55
##  2            2001          2002        0.909                     2.46
##  3            2002          2003        0.911                     2.47
##  4            2003          2004        0.914                     2.37
##  5            2005          2006        0.903                     2.87
##  6            2006          2007        0.908                     2.66
##  7            2007          2008        0.911                     2.56
##  8            2008          2009        0.911                     2.67
##  9            2009          2010        0.912                     2.64
## 10            2010          2011        0.914                     2.59
## # ℹ 14 more rows
…
established_league_stats_by_season_undersized

## # A tibble: 47 × 6
##    seasonStartYear seasonEndYear undersized mean_savePct mean_goalsAgainstAver…¹
##              <int>         <int> <lgl>             <dbl>                   <dbl>
##  1            2000          2001 FALSE             0.907                    2.53
##  2            2000          2001 TRUE              0.902                    2.69
##  3            2001          2002 FALSE             0.909                    2.45
##  4            2001          2002 TRUE              0.908                    2.50
##  5            2002          2003 FALSE             0.912                    2.44
##  6            2002          2003 TRUE              0.897                    2.83
##  7            2003          2004 FALSE             0.914                    2.38
##  8            2003          2004 TRUE              0.913                    2.27
##  9            2005          2006 FALSE             0.903                    2.89
## 10            2005          2006 TRUE              0.902                    2.71
## # ℹ 37 more rows
## # ℹ abbreviated name: ¹​mean_goalsAgainstAverage
## # ℹ 1 more variable: mean_win_percentage <dbl>
…
